Creating Interactive Maps with Highcharts and R
…
I now have two objects - a shapefile with the redlining data, and a tibble that has geographic coordinates and data associated with each shape. This also has race information based on the Census. Lets have a look at the relevant columns from this tibble. This tibble is 1269 rows. Each row represents a pair of geographic coordinates in one of the shapes associated with the redlining data. Shapes are indexed by the id variable, which starts at 0. The name column gives the zone name, and the label columns gives the zone color code. Finally the white_prop_[year] and black_prop_[year] columns provide race proportions for each zone in a given year.

durham_redline_tbl2 %>% select(long, lat, id, name, label,
                               white_prop_1970, black_prop_1970, 
                               white_prop_1980, black_prop_1980,
                               white_prop_1990, black_prop_1990, 
                               white_prop_2000, black_prop_2000,
                               white_prop_2010, black_prop_2010)

# A tibble: 1,269 x 15
    long   lat    id name  label white_prop_1970 black_prop_1970
   <dbl> <dbl> <dbl> <chr> <chr>           <dbl>           <dbl>
 1 -78.9  36.0     0 A4    A               0.773           0.215
 2 -78.9  36.0     0 A4    A               0.773           0.215
 3 -78.9  36.0     0 A4    A               0.773           0.215
 4 -78.9  36.0     0 A4    A               0.773           0.215
 5 -78.9  36.0     0 A4    A               0.773           0.215
 6 -78.9  36.0     1 D5    D               0.431           0.566
 7 -78.9  36.0     1 D5    D               0.431           0.566
 8 -78.9  36.0     1 D5    D               0.431           0.566
 9 -78.9  36.0     1 D5    D               0.431           0.566
10 -78.9  36.0     1 D5    D               0.431           0.566
#  with 1,259 more rows, and 8 more variables:
#   white_prop_1980 <dbl>, black_prop_1980 <dbl>,
#   white_prop_1990 <dbl>, black_prop_1990 <dbl>,
#   white_prop_2000 <dbl>, black_prop_2000 <dbl>,
#   white_prop_2010 <dbl>, black_prop_2010 <dbl>
…
durham_redline_tbl_lng <- durham_redline_tbl_lng %>% 
  mutate(race = str_replace(x, "_.*?$", "") %>% trimws) %>% 
  mutate(x = str_extract(x, "_.*?$") %>% str_replace("_", "") %>% as.numeric) %>% 
  select(id, name, x, y, race)

Lets see how the resulting tibble looks.

durham_redline_tbl_lng

# A tibble: 240 x 5
      id name      x     y race 
   <dbl> <chr> <dbl> <dbl> <chr>
 1     0 A4     1970 0.773 white
 2     1 D5     1970 0.431 white
 3     2 C1     1970 0.741 white
 4     3 A1     1970 0.996 white
 5     4 A2     1970 0.915 white
 6     5 A3     1970 0.842 white
 7     6 A5     1970 0.877 white
 8     7 B1     1970 0.996 white
 9     8 B2     1970 0.913 white
10     9 B3     1970 0.843 white
#  with 230 more rows
…
